2014_10_02/810.CSV

Record Length,12288,,Source,CH1,CH2
Sample Interval,CH1:0.0000099999994 CH2:0.0000099999994,,Second,Volt,Volt
Vertical Units,CH1:V CH2:V,,-0.06144000000,0.13200,0.48000,
Vertical Scale,CH1:0.10 CH2:1.00,,-0.06143000000,0.13200,0.48000,
Vertical Offset,CH1:-0.34400 CH2:-2.00000,,-0.06142000000,0.13200,0.48000,
Horizontal Units,s,,-0.06141000000,0.13200,0.48000,
Horizontal Scale,0.0050000000,,-0.06140000000,0.13200,0.52000,
Model Number,WaveAce2004,,-0.06139000000,0.12800,0.48000,
Serial Number,LCRY2250C00554,,-0.06138000000,0.12800,0.44000,
Software Version,5.01.02.07R1,,-0.06137000000,0.12800,0.48000,
,,,-0.06136000000,0.12800,0.48000,
,,,-0.06135000000,0.12800,0.48000,
,,,-0.06133999375,0.12800,0.48000,
,,,-0.06133000000,0.12800,0.48000,
,,,-0.06132000000,0.12800,0.48000,
,,,-0.06131000000,0.12800,0.48000,
,,,-0.06130000000,0.12800,0.48000,
,,,-0.06129000000,0.12800,0.48000,
,,,-0.06128000000,0.12800,0.48000,
,,,-0.06127000000,0.12400,0.48000,
,,,-0.06126000000,0.12800,0.48000,
,,,-0.06125000000,0.12800,0.48000,
,,,-0.06124000000,0.12800,0.48000,
,,,-0.06123000000,0.12400,0.48000,
,,,-0.06122000000,0.12400,0.48000,
,,,-0.06121000000,0.12400,0.48000,
,,,-0.06119999375,0.12400,0.48000,
,,,-0.06119000000,0.12400,0.48000,
,,,-0.06118000000,0.12400,0.48000,
,,,-0.06116999375,0.12400,0.48000,
,,,-0.06116000000,0.12400,0.48000,
,,,-0.06115000000,0.12400,0.48000,
,,,-0.06114000000,0.12400,0.48000,
,,,-0.06113000000,0.12400,0.48000,
,,,-0.06112000000,0.12400,0.48000,
,,,-0.06111000000,0.12400,0.48000,
,,,-0.06110000000,0.12400,0.48000,
,,,-0.06109000000,0.12400,0.48000,
,,,-0.06108000000,0.12400,0.48000,
,,,-0.06107000000,0.12400,0.48000,
,,,-0.06106000000,0.12400,0.48000,
,,,-0.06105000000,0.12400,0.48000,
,,,-0.06104000000,0.12400,0.48000,
,,,-0.06102999375,0.12400,0.48000,
,,,-0.06102000000,0.12400,0.48000,
,,,-0.06101000000,0.12400,0.48000,
,,,-0.06100000000,0.12400,0.48000,
,,,-0.06099000000,0.12400,0.48000,
,,,-0.06098000000,0.12400,0.48000,
,,,-0.06097000000,0.12400,0.52000,
,,,-0.06096000000,0.12400,0.48000,
,,,-0.06095000000,0.12400,0.52000,
,,,-0.06094000000,0.12400,0.48000,
,,,-0.06093000000,0.12400,0.48000,
,,,-0.06092000000,0.12400,0.48000,
,,,-0.06091000000,0.12400,0.52000,
,,,-0.06090000000,0.12400,0.48000,
,,,-0.06089000000,0.12400,0.48000,
,,,-0.06088000000,0.12400,0.52000,
,,,-0.06087000000,0.12400,0.48000,
,,,-0.06085999375,0.12000,0.48000,
,,,-0.06085000000,0.12400,0.52000,
,,,-0.06084000000,0.12400,0.52000,
,,,-0.06083000000,0.12000,0.48000,
,,,-0.06082000000,0.12400,0.48000,
,,,-0.06081000000,0.12000,0.48000,
,,,-0.06080000000,0.12400,0.48000,
,,,-0.06079000000,0.12400,0.48000,
,,,-0.06078000000,0.12400,0.48000,
,,,-0.06077000000,0.12000,0.52000,
,,,-0.06076000000,0.12400,0.52000,
,,,-0.06075000000,0.12400,0.48000,
,,,-0.06074000000,0.12400,0.48000,
,,,-0.06073000000,0.12400,0.48000,
,,,-0.06071999375,0.12000,0.52000,
,,,-0.06071000000,0.12400,0.52000,
,,,-0.06070000000,0.12400,0.48000,
,,,-0.06069000000,0.12400,0.52000,
,,,-0.06068000000,0.12400,0.48000,
,,,-0.06067000000,0.12400,0.48000,
,,,-0.06066000000,0.12000,0.48000,
,,,-0.06065000000,0.12400,0.52000,
,,,-0.06064000000,0.12400,0.52000,
,,,-0.06063000000,0.12400,0.52000,
,,,-0.06062000000,0.12400,0.48000,
,,,-0.06061000000,0.12400,0.52000,
,,,-0.06060000000,0.12400,0.52000,
,,,-0.06059000000,0.12400,0.48000,
,,,-0.06058000000,0.12400,0.48000,
,,,-0.06057000000,0.12400,0.48000,
,,,-0.06056000000,0.12400,0.52000,
,,,-0.06054999375,0.12000,0.48000,
,,,-0.06054000000,0.12000,0.48000,
,,,-0.06053000000,0.12400,0.52000,
,,,-0.06052000000,0.12400,0.48000,
,,,-0.06051000000,0.12000,0.48000,
,,,-0.06050000000,0.12400,0.48000,
,,,-0.06049000000,0.12000,0.48000,
,,,-0.06048000000,0.12400,0.52000,
,,,-0.06047000000,0.12400,0.52000,
,,,-0.06046000000,0.12400,0.52000,
,,,-0.06045000000,0.12400,0.52000,
,,,-0.06044000000,0.12400,0.52000,
,,,-0.06043000000,0.12400,0.52000,
,,,-0.06042000000,0.12400,0.52000,
,,,-0.06040999375,0.12400,0.52000,
,,,-0.06040000000,0.12400,0.52000,
,,,-0.06039000000,0.12400,0.52000,
,,,-0.06038000000,0.12400,0.48000,
,,,-0.06037000000,0.12400,0.52000,
,,,-0.06036000000,0.12400,0.52000,
,,,-0.06035000000,0.12400,0.52000,
,,,-0.06034000000,0.12400,0.52000,
,,,-0.06033000000,0.12400,0.52000,
,,,-0.06032000000,0.12400,0.52000,
,,,-0.06031000000,0.12400,0.52000,
,,,-0.06030000000,0.12400,0.52000,
,,,-0.06029000000,0.12400,0.52000,
,,,-0.06028000000,0.12400,0.48000,
,,,-0.06027000000,0.12400,0.52000,
,,,-0.06026000000,0.12400,0.52000,
,,,-0.06025000000,0.12400,0.52000,
,,,-0.06023999375,0.12400,0.52000,
,,,-0.06023000000,0.12400,0.48000,
,,,-0.06022000000,0.12800,0.52000,
,,,-0.06021000000,0.12400,0.52000,
,,,-0.06020000000,0.12400,0.52000,
,,,-0.06019000000,0.12800,0.52000,
,,,-0.06018000000,0.12800,0.52000,
,,,-0.06017000000,0.12800,0.52000,
,,,-0.06016000000,0.12800,0.52000,
,,,-0.06015000000,0.12800,0.52000,
,,,-0.06014000000,0.12800,0.52000,
,,,-0.06013000000,0.12800,0.52000,
,,,-0.06012000000,0.13200,0.52000,
,,,-0.06011000000,0.13200,0.52000,
,,,-0.06009999375,0.13600,0.52000,
,,,-0.06009000000,0.13600,0.52000,
,,,-0.06008000000,0.13200,0.52000,
,,,-0.06006999375,0.13600,0.52000,
,,,-0.06006000000,0.13600,0.52000,
,,,-0.06005000000,0.13600,0.52000,
,,,-0.06004000000,0.14000,0.52000,
,,,-0.06003000000,0.13600,0.52000,
,,,-0.06002000000,0.13600,0.52000,
,,,-0.06001000000,0.14000,0.52000,
,,,-0.06000000000,0.14000,0.52000,
,,,-0.05999000000,0.14000,0.52000,
,,,-0.05998000000,0.14000,0.52000,
,,,-0.05997000000,0.14000,0.52000,
,,,-0.05996000000,0.14400,0.52000,
,,,-0.05995000000,0.14000,0.52000,
,,,-0.05994000000,0.14000,0.52000,
,,,-0.05992999375,0.13600,0.52000,
,,,-0.05992000000,0.13600,0.52000,
,,,-0.05991000000,0.13600,0.52000,
,,,-0.05990000000,0.13200,0.52000,
,,,-0.05989000000,0.13200,0.52000,
,,,-0.05988000000,0.13200,0.52000,
,,,-0.05987000000,0.13200,0.52000,
,,,-0.05986000000,0.13200,0.52000,
,,,-0.05985000000,0.13200,0.52000,
,,,-0.05984000000,0.13200,0.52000,
,,,-0.05983000000,0.13200,0.52000,
,,,-0.05982000000,0.13200,0.52000,
,,,-0.05981000000,0.13200,0.52000,
,,,-0.05980000000,0.13200,0.52000,
,,,-0.05979000000,0.13200,0.52000,
,,,-0.05978000000,0.13200,0.52000,
,,,-0.05977000000,0.13200,0.52000,
,,,-0.05975999375,0.12800,0.52000,
,,,-0.05975000000,0.13200,0.52000,
,,,-0.05974000000,0.13200,0.52000,
,,,-0.05973000000,0.13200,0.52000,
,,,-0.05972000000,0.12800,0.52000,
,,,-0.05971000000,0.12800,0.52000,
,,,-0.05970000000,0.12800,0.52000,
,,,-0.05969000000,0.12800,0.52000,
,,,-0.05968000000,0.12800,0.52000,
,,,-0.05967000000,0.12800,0.52000,
,,,-0.05966000000,0.12800,0.52000,
,,,-0.05965000000,0.12400,0.52000,
,,,-0.05964000000,0.12800,0.52000,
,,,-0.05963000000,0.12400,0.52000,
,,,-0.05961999375,0.12400,0.52000,
,,,-0.05961000000,0.12800,0.52000,
,,,-0.05960000000,0.12400,0.52000,
,,,-0.05959000000,0.12400,0.52000,
,,,-0.05958000000,0.12400,0.52000,
,,,-0.05957000000,0.12400,0.52000,
,,,-0.05956000000,0.12400,0.52000,
,,,-0.05955000000,0.12800,0.52000,
,,,-0.05954000000,0.12400,0.52000,
,,,-0.05953000000,0.12400,0.52000,
,,,-0.05952000000,0.12400,0.52000,
,,,-0.05951000000,0.12400,0.52000,
,,,-0.05950000000,0.12400,0.52000,
,,,-0.05949000000,0.12400,0.52000,
,,,-0.05948000000,0.12400,0.52000,
,,,-0.05947000000,0.12400,0.52000,
,,,-0.05946000000,0.12400,0.52000,
,,,-0.05944999375,0.12400,0.52000,
,,,-0.05944000000,0.12400,0.56000,
,,,-0.05943000000,0.12400,0.52000,
,,,-0.05942000000,0.12400,0.52000,
,,,-0.05941000000,0.12400,0.52000,
,,,-0.05940000000,0.12400,0.52000,
,,,-0.05939000000,0.12400,0.52000,
,,,-0.05938000000,0.12800,0.56000,
,,,-0.05937000000,0.12400,0.52000,
,,,-0.05936000000,0.12400,0.52000,
,,,-0.05935000000,0.12400,0.56000,
,,,-0.05934000000,0.12400,0.52000,
,,,-0.05933000000,0.12400,0.52000,
,,,-0.05932000000,0.12400,0.52000,
,,,-0.05930999375,0.12400,0.52000,
,,,-0.05930000000,0.12400,0.52000,
,,,-0.05929000000,0.12400,0.52000,
,,,-0.05928000000,0.12400,0.52000,
,,,-0.05927000000,0.12400,0.52000,
,,,-0.05926000000,0.12400,0.56000,
,,,-0.05925000000,0.12400,0.52000,
,,,-0.05924000000,0.12400,0.56000,
,,,-0.05923000000,0.12400,0.52000,
,,,-0.05922000000,0.12400,0.52000,
,,,-0.05921000000,0.12400,0.52000,
,,,-0.05920000000,0.12400,0.56000,
,,,-0.05919000000,0.12400,0.56000,
,,,-0.05918000000,0.12400,0.52000,
,,,-0.05917000000,0.12400,0.52000,
,,,-0.05916000000,0.12400,0.52000,
,,,-0.05915000000,0.12800,0.56000,
,,,-0.05913999375,0.12400,0.56000,
,,,-0.05913000000,0.12400,0.52000,
,,,-0.05912000000,0.12800,0.56000,
,,,-0.05911000000,0.12800,0.52000,
,,,-0.05910000000,0.12800,0.52000,
,,,-0.05909000000,0.12800,0.52000,
,,,-0.05908000000,0.12400,0.52000,
,,,-0.05907000000,0.12800,0.56000,
,,,-0.05906000000,0.12400,0.56000,
,,,-0.05905000000,0.12400,0.52000,
,,,-0.05904000000,0.12800,0.56000,
,,,-0.05903000000,0.12800,0.52000,
,,,-0.05902000000,0.12400,0.52000,
,,,-0.05901000000,0.12800,0.52000,
,,,-0.05900000000,0.12800,0.56000,
,,,-0.05899000000,0.12800,0.52000,
,,,-0.05898000000,0.12800,0.56000,
,,,-0.05896999375,0.12800,0.56000,
,,,-0.05896000000,0.12800,0.52000,
,,,-0.05895000000,0.12800,0.56000,
,,,-0.05894000000,0.12800,0.56000,
,,,-0.05893000000,0.12800,0.56000,
,,,-0.05892000000,0.13200,0.56000,
,,,-0.05891000000,0.12800,0.56000,
,,,-0.05890000000,0.12800,0.52000,
,,,-0.05889000000,0.13200,0.56000,
,,,-0.05888000000,0.13200,0.56000,
,,,-0.05887000000,0.13200,0.52000,
,,,-0.05886000000,0.13200,0.56000,
,,,-0.05885000000,0.13200,0.56000,
,,,-0.05884000000,0.13200,0.56000,
,,,-0.05882999375,0.13200,0.56000,
,,,-0.05882000000,0.13200,0.56000,
,,,-0.05881000000,0.13200,0.56000,
,,,-0.05880000000,0.13600,0.56000,
,,,-0.05879000000,0.13600,0.56000,
,,,-0.05878000000,0.13600,0.56000,
,,,-0.05877000000,0.13600,0.56000,
,,,-0.05876000000,0.13600,0.56000,
,,,-0.05875000000,0.13600,0.56000,
,,,-0.05874000000,0.13600,0.56000,
,,,-0.05873000000,0.13200,0.56000,
,,,-0.05872000000,0.13600,0.56000,
,,,-0.05871000000,0.13600,0.56000,
,,,-0.05870000000,0.13600,0.56000,
,,,-0.05869000000,0.13600,0.56000,
,,,-0.05868000000,0.13200,0.56000,
,,,-0.05867000000,0.13200,0.56000,
,,,-0.05865999375,0.13200,0.56000,
,,,-0.05865000000,0.13200,0.56000,
,,,-0.05864000000,0.13200,0.56000,
,,,-0.05863000000,0.13200,0.56000,
,,,-0.05862000000,0.13600,0.56000,
,,,-0.05861000000,0.13600,0.56000,
,,,-0.05860000000,0.14000,0.56000,
,,,-0.05859000000,0.13600,0.56000,
,,,-0.05858000000,0.13600,0.56000,
,,,-0.05857000000,0.14000,0.56000,
,,,-0.05856000000,0.13600,0.56000,
,,,-0.05855000000,0.14000,0.56000,
,,,-0.05854000000,0.14000,0.56000,
,,,-0.05853000000,0.14000,0.56000,
,,,-0.05851999375,0.14000,0.56000,
,,,-0.05851000000,0.14000,0.56000,
,,,-0.05850000000,0.14400,0.56000,
,,,-0.05849000000,0.14400,0.56000,
,,,-0.05848000000,0.14400,0.56000,
,,,-0.05847000000,0.14800,0.56000,
,,,-0.05846000000,0.14800,0.56000,
,,,-0.05845000000,0.14400,0.56000,
,,,-0.05844000000,0.14400,0.52000,
,,,-0.05843000000,0.14000,0.56000,
,,,-0.05842000000,0.14000,0.56000,
,,,-0.05841000000,0.14000,0.56000,
,,,-0.05840000000,0.14000,0.56000,
,,,-0.05839000000,0.14000,0.56000,
,,,-0.05838000000,0.14000,0.56000,
,,,-0.05837000000,0.14000,0.56000,
,,,-0.05836000000,0.13600,0.56000,
,,,-0.05834999375,0.13600,0.56000,
,,,-0.05834000000,0.13600,0.56000,
,,,-0.05833000000,0.13600,0.56000,
,,,-0.05832000000,0.13600,0.56000,
,,,-0.05831000000,0.13600,0.56000,
,,,-0.05830000000,0.13200,0.56000,
,,,-0.05829000000,0.13200,0.56000,
,,,-0.05828000000,0.13200,0.56000,
,,,-0.05827000000,0.13200,0.56000,
,,,-0.05826000000,0.13200,0.56000,
,,,-0.05825000000,0.13200,0.56000,
,,,-0.05824000000,0.13200,0.56000,
,,,-0.05823000000,0.13200,0.56000,
,,,-0.05822000000,0.13200,0.56000,
,,,-0.05820999375,0.13200,0.56000,
,,,-0.05820000000,0.13200,0.56000,
,,,-0.05819000000,0.13200,0.56000,
,,,-0.05818000000,0.13200,0.56000,
,,,-0.05817000000,0.13200,0.56000,
,,,-0.05816000000,0.13200,0.56000,
,,,-0.05815000000,0.13200,0.56000,
,,,-0.05814000000,0.13200,0.56000,
,,,-0.05813000000,0.13200,0.56000,
,,,-0.05812000000,0.13200,0.56000,
,,,-0.05811000000,0.13200,0.56000,
,,,-0.05810000000,0.13200,0.56000,
,,,-0.05809000000,0.13200,0.56000,
,,,-0.05808000000,0.13200,0.56000,
,,,-0.05807000000,0.13200,0.56000,
,,,-0.05806000000,0.13200,0.56000,
,,,-0.05805000000,0.13200,0.56000,
,,,-0.05803999375,0.13200,0.56000,
,,,-0.05803000000,0.13200,0.56000,
,,,-0.05802000000,0.13200,0.56000,
,,,-0.05801000000,0.13200,0.56000,
,,,-0.05800000000,0.13200,0.56000,
,,,-0.05799000000,0.13200,0.56000,
,,,-0.05798000000,0.13200,0.56000,
,,,-0.05797000000,0.13200,0.56000,
,,,-0.05796000000,0.13200,0.56000,
,,,-0.05795000000,0.13200,0.56000,
,,,-0.05794000000,0.13200,0.56000,
,,,-0.05793000000,0.13200,0.56000,
,,,-0.05792000000,0.13200,0.56000,
,,,-0.05791000000,0.13200,0.56000,
,,,-0.05790000000,0.13200,0.56000,
,,,-0.05789000000,0.13200,0.56000,
,,,-0.05788000000,0.13200,0.60000,
,,,-0.05787000000,0.13200,0.56000,
,,,-0.05786000000,0.13200,0.60000,
,,,-0.05785000000,0.13200,0.60000,
,,,-0.05784000000,0.13200,0.56000,
,,,-0.05783000000,0.13200,0.56000,
,,,-0.05782000000,0.13200,0.60000,
,,,-0.05781000000,0.13200,0.56000,
,,,-0.05780000000,0.13200,0.56000,
,,,-0.05779000000,0.13200,0.56000,
,,,-0.05778000000,0.13200,0.56000,
,,,-0.05777000000,0.13200,0.56000,
,,,-0.05776000000,0.13200,0.56000,
,,,-0.05775000000,0.13200,0.56000,
,,,-0.05774000000,0.13200,0.60000,
,,,-0.05772999375,0.13200,0.56000,
,,,-0.05772000000,0.13200,0.56000,
,,,-0.05771000000,0.13200,0.56000,
,,,-0.05770000000,0.13200,0.56000,
,,,-0.05769000000,0.13200,0.56000,
,,,-0.05768000000,0.13200,0.56000,
,,,-0.05767000000,0.13200,0.56000,
,,,-0.05766000000,0.13200,0.56000,
,,,-0.05765000000,0.13200,0.56000,
,,,-0.05764000000,0.13200,0.56000,
,,,-0.05763000000,0.13200,0.56000,
,,,-0.05762000000,0.13200,0.56000,
,,,-0.05761000000,0.13200,0.56000,
,,,-0.05760000000,0.13200,0.56000,
,,,-0.05759000000,0.13200,0.56000,
,,,-0.05758000000,0.13200,0.56000,
,,,-0.05757000000,0.13600,0.56000,
,,,-0.05755999375,0.13600,0.60000,
,,,-0.05755000000,0.13200,0.56000,
,,,-0.05754000000,0.13600,0.56000,
,,,-0.05753000000,0.13200,0.56000,
,,,-0.05752000000,0.13600,0.56000,
,,,-0.05751000000,0.13600,0.60000,
,,,-0.05750000000,0.13600,0.60000,
,,,-0.05749000000,0.13200,0.60000,
,,,-0.05748000000,0.13600,0.56000,
,,,-0.05747000000,0.13200,0.56000,
,,,-0.05746000000,0.13200,0.60000,
,,,-0.05745000000,0.13600,0.60000,
,,,-0.05744000000,0.13200,0.56000,
,,,-0.05743000000,0.13600,0.60000,
,,,-0.05741999375,0.13600,0.60000,
,,,-0.05741000000,0.13200,0.56000,
,,,-0.05740000000,0.13600,0.60000,
,,,-0.05739000000,0.13600,0.60000,
,,,-0.05738000000,0.13200,0.60000,
,,,-0.05737000000,0.13600,0.60000,
,,,-0.05736000000,0.13600,0.60000,
,,,-0.05735000000,0.13200,0.60000,
,,,-0.05734000000,0.13600,0.60000,
,,,-0.05733000000,0.13600,0.60000,
,,,-0.05732000000,0.13600,0.56000,
,,,-0.05731000000,0.13600,0.60000,
,,,-0.05730000000,0.13600,0.60000,
,,,-0.05729000000,0.13600,0.56000,
,,,-0.05728000000,0.13600,0.60000,
,,,-0.05727000000,0.13600,0.56000,
,,,-0.05726000000,0.13600,0.56000,
,,,-0.05724999375,0.13600,0.60000,
,,,-0.05724000000,0.13600,0.56000,
,,,-0.05723000000,0.13600,0.60000,
,,,-0.05722000000,0.13600,0.60000,
,,,-0.05721000000,0.13600,0.56000,
,,,-0.05720000000,0.13600,0.56000,
,,,-0.05719000000,0.14000,0.60000,
,,,-0.05718000000,0.13600,0.56000,
,,,-0.05717000000,0.14000,0.56000,
,,,-0.05716000000,0.14000,0.56000,
,,,-0.05715000000,0.14000,0.60000,
,,,-0.05714000000,0.14000,0.56000,
,,,-0.05713000000,0.14000,0.56000,
,,,-0.05712000000,0.14000,0.60000,
,,,-0.05711000000,0.14400,0.60000,
,,,-0.05710000000,0.14400,0.60000,
,,,-0.05709000000,0.14400,0.56000,
,,,-0.05708000000,0.14800,0.56000,
,,,-0.05707000000,0.14800,0.60000,
,,,-0.05706000000,0.15200,0.60000,
,,,-0.05705000000,0.15200,0.60000,
,,,-0.05704000000,0.15200,0.60000,
,,,-0.05703000000,0.15600,0.56000,
,,,-0.05702000000,0.15600,0.60000,
,,,-0.05701000000,0.15600,0.60000,
,,,-0.05700000000,0.16000,0.60000,
,,,-0.05699000000,0.16800,0.56000,
,,,-0.05698000000,0.16800,0.60000,
,,,-0.05697000000,0.17200,0.60000,
,,,-0.05696000000,0.17600,0.60000,
,,,-0.05695000000,0.17600,0.56000,
,,,-0.05693999375,0.18400,0.60000,
,,,-0.05693000000,0.19600,0.60000,
,,,-0.05692000000,0.19200,0.56000,
,,,-0.05691000000,0.20000,0.60000,
,,,-0.05690000000,0.21600,0.60000,
,,,-0.05689000000,0.22000,0.60000,
,,,-0.05688000000,0.26400,0.56000,
,,,-0.05687000000,0.33200,0.56000,
,,,-0.05686000000,0.34800,0.60000,
,,,-0.05685000000,0.42000,0.60000,
,,,-0.05684000000,0.44400,0.60000,
,,,-0.05683000000,0.47600,0.60000,
,,,-0.05682000000,0.60400,0.60000,
,,,-0.05681000000,0.63200,0.60000,
,,,-0.05680000000,0.62800,0.60000,
,,,-0.05679000000,0.57600,0.56000,
,,,-0.05678000000,0.58400,0.60000,
,,,-0.05677000000,0.54000,0.60000,
,,,-0.05676000000,0.41200,0.60000,
,,,-0.05675000000,0.33200,0.60000,
,,,-0.05674000000,0.28000,0.60000,
,,,-0.05673000000,0.24400,0.60000,
,,,-0.05672000000,0.23600,0.60000,
,,,-0.05671000000,0.22000,0.56000,
,,,-0.05670000000,0.19600,0.60000,
,,,-0.05669000000,0.18000,0.60000,
,,,-0.05668000000,0.17200,0.60000,
,,,-0.05667000000,0.16800,0.60000,
,,,-0.05666000000,0.16400,0.60000,
,,,-0.05665000000,0.16400,0.60000,
,,,-0.05664000000,0.15600,0.60000,
,,,-0.05662999375,0.15200,0.60000,
,,,-0.05662000000,0.14800,0.60000,
,,,-0.05661000000,0.14800,0.60000,
,,,-0.05660000000,0.14800,0.60000,
,,,-0.05659000000,0.14800,0.60000,
,,,-0.05658000000,0.14400,0.60000,
,,,-0.05657000000,0.14400,0.64000,
,,,-0.05656000000,0.14400,0.60000,
,,,-0.05655000000,0.14000,0.60000,
,,,-0.05654000000,0.14000,0.60000,
,,,-0.05653000000,0.14000,0.60000,
,,,-0.05652000000,0.14000,0.64000,
,,,-0.05651000000,0.14000,0.60000,
,,,-0.05650000000,0.14000,0.60000,
,,,-0.05649000000,0.14000,0.60000,
,,,-0.05648000000,0.13600,0.60000,
,,,-0.05647000000,0.14000,0.60000,
,,,-0.05645999375,0.13600,0.60000,
,,,-0.05645000000,0.13600,0.60000,
,,,-0.05644000000,0.13600,0.60000,
,,,-0.05643000000,0.13600,0.60000,
,,,-0.05642000000,0.13600,0.60000,
,,,-0.05641000000,0.13600,0.60000,
,,,-0.05640000000,0.13600,0.60000,
,,,-0.05639000000,0.13600,0.60000,
,,,-0.05638000000,0.13600,0.60000,
,,,-0.05637000000,0.13200,0.60000,
,,,-0.05636000000,0.13600,0.60000,
,,,-0.05635000000,0.13200,0.60000,
,,,-0.05634000000,0.13200,0.60000,
,,,-0.05633000000,0.13600,0.60000,
,,,-0.05632000000,0.13200,0.60000,
,,,-0.05631000000,0.13200,0.60000,
,,,-0.05630000000,0.13200,0.60000,
,,,-0.05629000000,0.13200,0.60000,
,,,-0.05628000000,0.13200,0.60000,
,,,-0.05627000000,0.13600,0.60000,
,,,-0.05626000000,0.13200,0.60000,
,,,-0.05625000000,0.13200,0.60000,
,,,-0.05624000000,0.13200,0.60000,
,,,-0.05623000000,0.13200,0.60000,
,,,-0.05622000000,0.13200,0.60000,
,,,-0.05621000000,0.13200,0.60000,
,,,-0.05620000000,0.13200,0.60000,
,,,-0.05619000000,0.13200,0.60000,
,,,-0.05618000000,0.13200,0.60000,
,,,-0.05617000000,0.13200,0.60000,
,,,-0.05616000000,0.13200,0.60000,
,,,-0.05614999375,0.13200,0.60000,
,,,-0.05614000000,0.13200,0.60000,
,,,-0.05613000000,0.13200,0.64000,
,,,-0.05612000000,0.13200,0.60000,
,,,-0.05611000000,0.13200,0.60000,
,,,-0.05610000000,0.13200,0.64000,
,,,-0.05609000000,0.13200,0.60000,
,,,-0.05608000000,0.13200,0.60000,
,,,-0.05607000000,0.13200,0.64000,
,,,-0.05606000000,0.13200,0.60000,
,,,-0.05605000000,0.13200,0.60000,
,,,-0.05604000000,0.13200,0.60000,
,,,-0.05603000000,0.13200,0.60000,
,,,-0.05602000000,0.13200,0.60000,
,,,-0.05601000000,0.13200,0.60000,
,,,-0.05600000000,0.13200,0.60000,
,,,-0.05599000000,0.13200,0.60000,
,,,-0.05598000000,0.13200,0.60000,
,,,-0.05597000000,0.13200,0.60000,
,,,-0.05596000000,0.13200,0.60000,
,,,-0.05595000000,0.13200,0.60000,
,,,-0.05594000000,0.13200,0.60000,
,,,-0.05593000000,0.12800,0.60000,
,,,-0.05592000000,0.13200,0.60000,
,,,-0.05591000000,0.13200,0.60000,
,,,-0.05590000000,0.12800,0.60000,
,,,-0.05589000000,0.13200,0.60000,
,,,-0.05588000000,0.13200,0.60000,
,,,-0.05587000000,0.13200,0.60000,
,,,-0.05586000000,0.13200,0.60000,
,,,-0.05585000000,0.12800,0.60000,
,,,-0.05583999375,0.13200,0.60000,
,,,-0.05583000000,0.12800,0.64000,
