2014_10_06/810NEWER.CSV

Record Length,12288,,Source,CH3,CH4
Sample Interval, CH3:0.0000004000000 CH4:0.0000004000000,,Second,Volt,Volt
Vertical Units, CH3:V CH4:V,,-0.00245760016,0.00680,4.40000
Vertical Scale, CH3:0.01 CH4:10.00,,-0.00245720016,0.00680,4.40000
Vertical Offset, CH3:-0.03400 CH4:0.00,,-0.00245680016,0.00720,4.40000
Horizontal Units,s,,-0.00245640000,0.00720,4.40000
Horizontal Scale,0.0050000000,,-0.00245600000,0.00680,4.40000
Model Number,WaveAce2004,,-0.00245560000,0.00680,4.40000
Serial Number,LCRY2250C00554,,-0.00245520000,0.00720,4.40000
Software Version,5.01.02.07R1,,-0.00245480000,0.00680,4.40000
,,,-0.00245440000,0.00680,4.40000
,,,-0.00245400000,0.00680,4.40000
,,,-0.00245360000,0.00720,4.40000
,,,-0.00245320000,0.00680,4.40000
,,,-0.00245280000,0.00680,4.40000
,,,-0.00245240000,0.00680,4.40000
,,,-0.00245200000,0.00680,4.40000
,,,-0.00245160000,0.00680,4.40000
,,,-0.00245120000,0.00680,4.40000
,,,-0.00245080000,0.00720,4.40000
,,,-0.00245040000,0.00680,4.40000
,,,-0.00245000000,0.00680,4.00000
,,,-0.00244960000,0.00720,4.40000
,,,-0.00244920000,0.00680,4.00000
,,,-0.00244880000,0.00720,4.00000
,,,-0.00244840000,0.00720,4.40000
,,,-0.00244800000,0.00720,4.40000
,,,-0.00244760000,0.00720,4.40000
,,,-0.00244720000,0.00760,4.00000
,,,-0.00244680000,0.00880,4.40000
,,,-0.00244640000,0.00920,4.40000
,,,-0.00244600000,0.00800,4.40000
,,,-0.00244560000,0.00760,4.40000
,,,-0.00244520000,0.00720,4.40000
,,,-0.00244480000,0.00720,4.40000
,,,-0.00244440000,0.00720,4.40000
,,,-0.00244400000,0.00680,4.40000
,,,-0.00244360000,0.00680,4.40000
,,,-0.00244320000,0.00680,4.40000
,,,-0.00244280000,0.00680,4.00000
,,,-0.00244240000,0.00720,4.00000
,,,-0.00244200000,0.00680,4.40000
,,,-0.00244160000,0.00680,4.00000
,,,-0.00244120000,0.00680,4.40000
,,,-0.00244080000,0.00680,4.40000
,,,-0.00244040000,0.00720,4.00000
,,,-0.00244000000,0.00720,4.00000
,,,-0.00243960000,0.00680,4.00000
,,,-0.00243920000,0.00680,4.00000
,,,-0.00243880000,0.00680,4.40000
,,,-0.00243840000,0.00720,4.00000
,,,-0.00243800000,0.00680,4.40000
,,,-0.00243760000,0.00680,4.00000
,,,-0.00243720000,0.00680,4.00000
,,,-0.00243680000,0.00720,4.40000
,,,-0.00243640000,0.00720,4.00000
,,,-0.00243600000,0.00680,4.00000
,,,-0.00243559984,0.00680,4.00000
,,,-0.00243519984,0.00720,4.00000
,,,-0.00243479984,0.00680,4.40000
,,,-0.00243440016,0.00680,4.00000
,,,-0.00243400016,0.00720,4.00000
,,,-0.00243360016,0.00680,4.00000
,,,-0.00243320016,0.00680,4.40000
,,,-0.00243280016,0.00680,4.40000
,,,-0.00243240016,0.00720,4.00000
,,,-0.00243200016,0.00720,4.00000
,,,-0.00243160016,0.00680,4.00000
,,,-0.00243120016,0.00680,4.00000
,,,-0.00243080016,0.00680,4.00000
,,,-0.00243040016,0.00720,4.00000
,,,-0.00243000016,0.00680,4.00000
,,,-0.00242960016,0.00680,4.00000
,,,-0.00242920016,0.00680,4.00000
,,,-0.00242880016,0.00680,4.00000
,,,-0.00242840016,0.00680,4.00000
,,,-0.00242800016,0.00720,4.00000
,,,-0.00242760016,0.00680,4.00000
,,,-0.00242720016,0.00680,4.00000
,,,-0.00242680016,0.00680,4.00000
,,,-0.00242640016,0.00680,4.00000
,,,-0.00242600016,0.00680,4.40000
,,,-0.00242560000,0.00680,4.00000
,,,-0.00242520000,0.00680,4.00000
,,,-0.00242480000,0.00720,4.00000
,,,-0.00242440000,0.00680,4.00000
,,,-0.00242400000,0.00720,4.00000
,,,-0.00242360000,0.00720,4.00000
,,,-0.00242320000,0.00720,4.00000
,,,-0.00242280000,0.00760,4.00000
,,,-0.00242240000,0.00800,4.00000
,,,-0.00242200000,0.00800,4.00000
,,,-0.00242160000,0.00720,4.00000
,,,-0.00242120000,0.00680,4.00000
,,,-0.00242080000,0.00720,4.00000
,,,-0.00242040000,0.00680,4.00000
,,,-0.00242000000,0.00680,4.00000
,,,-0.00241960000,0.00680,4.00000
,,,-0.00241920000,0.00680,4.00000
,,,-0.00241880000,0.00680,4.00000
,,,-0.00241840000,0.00720,4.00000
,,,-0.00241800000,0.00680,4.00000
,,,-0.00241760000,0.00680,4.00000
,,,-0.00241720000,0.00680,4.00000
,,,-0.00241680000,0.00680,4.00000
,,,-0.00241640000,0.00680,4.00000
,,,-0.00241600000,0.00680,4.00000
,,,-0.00241560000,0.00680,4.00000
,,,-0.00241520000,0.00680,4.00000
,,,-0.00241480000,0.00680,4.00000
,,,-0.00241440000,0.00680,4.00000
,,,-0.00241400000,0.00680,4.00000
,,,-0.00241360000,0.00680,4.00000
,,,-0.00241320000,0.00680,4.00000
,,,-0.00241280000,0.00720,4.00000
,,,-0.00241240000,0.00680,4.00000
,,,-0.00241200000,0.00680,4.00000
,,,-0.00241160000,0.00680,4.00000
,,,-0.00241120000,0.00680,4.00000
,,,-0.00241080000,0.00680,4.00000
,,,-0.00241040000,0.00680,4.00000
,,,-0.00241000000,0.00680,4.00000
,,,-0.00240960000,0.00680,4.00000
,,,-0.00240920000,0.00680,4.00000
,,,-0.00240880000,0.00680,4.00000
,,,-0.00240840000,0.00680,4.00000
,,,-0.00240800000,0.00680,4.00000
,,,-0.00240760000,0.00680,4.00000
,,,-0.00240720000,0.00680,4.00000
,,,-0.00240680000,0.00680,4.00000
,,,-0.00240640000,0.00680,4.00000
,,,-0.00240600000,0.00680,4.00000
,,,-0.00240560000,0.00680,4.00000
,,,-0.00240519984,0.00680,4.00000
,,,-0.00240479984,0.00680,4.00000
,,,-0.00240439984,0.00680,4.00000
,,,-0.00240400016,0.00680,4.00000
,,,-0.00240360016,0.00680,4.00000
,,,-0.00240320016,0.00680,3.60000
,,,-0.00240280016,0.00680,3.60000
,,,-0.00240240016,0.00680,4.00000
,,,-0.00240200016,0.00680,4.00000
,,,-0.00240160016,0.00720,4.00000
,,,-0.00240120016,0.00680,4.00000
,,,-0.00240080016,0.00720,4.00000
,,,-0.00240040016,0.00680,3.60000
,,,-0.00240000016,0.00760,3.60000
,,,-0.00239960016,0.00760,4.00000
,,,-0.00239920016,0.00760,4.00000
,,,-0.00239880016,0.00720,4.00000
,,,-0.00239840016,0.00720,4.00000
,,,-0.00239800016,0.00680,3.60000
,,,-0.00239760016,0.00720,4.00000
,,,-0.00239720016,0.00720,3.60000
,,,-0.00239680016,0.00680,3.60000
,,,-0.00239640016,0.00680,3.60000
,,,-0.00239600016,0.00720,3.60000
,,,-0.00239560016,0.00720,4.00000
,,,-0.00239520000,0.00680,4.00000
,,,-0.00239480000,0.00680,3.60000
,,,-0.00239440000,0.00680,4.00000
,,,-0.00239400000,0.00720,4.00000
,,,-0.00239360000,0.00680,3.60000
,,,-0.00239320000,0.00680,3.60000
,,,-0.00239280000,0.00680,3.60000
,,,-0.00239240000,0.00680,4.00000
,,,-0.00239200000,0.00680,3.60000
,,,-0.00239160000,0.00680,3.60000
,,,-0.00239120000,0.00680,4.00000
,,,-0.00239080000,0.00680,4.00000
,,,-0.00239040000,0.00680,3.60000
,,,-0.00239000000,0.00680,4.00000
,,,-0.00238960000,0.00680,4.00000
,,,-0.00238920000,0.00680,3.60000
,,,-0.00238880000,0.00720,3.60000
,,,-0.00238840000,0.00680,3.60000
,,,-0.00238800000,0.00680,3.60000
,,,-0.00238760000,0.00680,4.00000
,,,-0.00238720000,0.00720,3.60000
,,,-0.00238680000,0.00680,3.60000
,,,-0.00238640000,0.00680,3.60000
,,,-0.00238600000,0.00680,3.60000
,,,-0.00238560000,0.00680,4.00000
,,,-0.00238520000,0.00720,3.60000
,,,-0.00238480000,0.00680,3.60000
,,,-0.00238440000,0.00680,4.00000
,,,-0.00238400000,0.00680,4.00000
,,,-0.00238360000,0.00680,4.00000
,,,-0.00238320000,0.00680,3.60000
,,,-0.00238280000,0.00720,3.60000
,,,-0.00238240000,0.00680,3.60000
,,,-0.00238200000,0.00720,4.00000
,,,-0.00238160000,0.00680,3.60000
,,,-0.00238120000,0.00680,3.60000
,,,-0.00238080000,0.00680,3.60000
,,,-0.00238040000,0.00680,3.60000
,,,-0.00238000000,0.00720,3.60000
,,,-0.00237960000,0.00680,3.60000
,,,-0.00237920000,0.00720,3.60000
,,,-0.00237880000,0.00720,3.60000
,,,-0.00237840000,0.00720,3.60000
,,,-0.00237800000,0.00760,3.60000
,,,-0.00237760000,0.00760,3.60000
,,,-0.00237720000,0.00960,3.60000
,,,-0.00237680000,0.01320,3.60000
,,,-0.00237640000,0.01320,3.60000
,,,-0.00237600000,0.00880,3.60000
,,,-0.00237560000,0.00800,3.60000
,,,-0.00237520000,0.00720,3.60000
,,,-0.00237480000,0.00720,3.60000
,,,-0.00237439984,0.00720,3.60000
,,,-0.00237399984,0.00720,3.60000
,,,-0.00237359984,0.00720,3.60000
,,,-0.00237320016,0.00720,3.60000
,,,-0.00237280016,0.00680,3.60000
,,,-0.00237240016,0.00720,3.60000
,,,-0.00237200016,0.00720,3.60000
,,,-0.00237160016,0.00680,3.60000
,,,-0.00237120016,0.00720,3.60000
,,,-0.00237080016,0.00720,3.60000
,,,-0.00237040016,0.00680,3.60000
,,,-0.00237000016,0.00680,3.60000
,,,-0.00236960016,0.00680,3.60000
,,,-0.00236920016,0.00680,3.60000
,,,-0.00236880016,0.00680,3.60000
,,,-0.00236840016,0.00720,3.60000
,,,-0.00236800016,0.00680,3.60000
,,,-0.00236760016,0.00680,3.60000
,,,-0.00236720016,0.00680,3.60000
,,,-0.00236680016,0.00680,3.60000
,,,-0.00236640016,0.00720,3.60000
,,,-0.00236600016,0.00720,3.60000
,,,-0.00236560016,0.00680,3.60000
,,,-0.00236520016,0.00680,3.60000
,,,-0.00236480016,0.00680,3.60000
,,,-0.00236440000,0.00680,3.60000
,,,-0.00236400000,0.00680,3.60000
,,,-0.00236360000,0.00680,3.60000
,,,-0.00236320000,0.00680,3.60000
,,,-0.00236280000,0.00720,3.60000
,,,-0.00236240000,0.00680,3.60000
,,,-0.00236200000,0.00680,3.60000
,,,-0.00236160000,0.00680,3.60000
,,,-0.00236120000,0.00680,3.60000
,,,-0.00236080000,0.00680,3.60000
,,,-0.00236040000,0.00720,3.60000
,,,-0.00236000000,0.00720,3.20000
,,,-0.00235960000,0.00720,3.60000
,,,-0.00235920000,0.00680,3.60000
,,,-0.00235880000,0.00680,3.60000
,,,-0.00235840000,0.00680,3.60000
,,,-0.00235800000,0.00680,3.60000
,,,-0.00235760000,0.00680,3.20000
,,,-0.00235720000,0.00680,3.20000
,,,-0.00235680000,0.00680,3.60000
,,,-0.00235640000,0.00680,3.20000
,,,-0.00235600000,0.00680,3.20000
,,,-0.00235560000,0.00720,3.20000
,,,-0.00235520000,0.00720,3.60000
,,,-0.00235480000,0.00760,3.20000
,,,-0.00235440000,0.00800,3.20000
,,,-0.00235400000,0.01000,3.20000
,,,-0.00235360000,0.01320,3.20000
,,,-0.00235320000,0.01400,3.60000
,,,-0.00235280000,0.01000,3.20000
,,,-0.00235240000,0.00880,3.20000
,,,-0.00235200000,0.00760,3.20000
,,,-0.00235160000,0.00760,3.20000
,,,-0.00235120000,0.00720,3.20000
,,,-0.00235080000,0.00680,3.20000
,,,-0.00235040000,0.00680,3.20000
,,,-0.00235000000,0.00720,3.60000
,,,-0.00234960000,0.00680,3.20000
,,,-0.00234920000,0.00680,3.20000
,,,-0.00234880000,0.00680,3.60000
,,,-0.00234840000,0.00680,3.20000
,,,-0.00234800000,0.00680,3.20000
,,,-0.00234760000,0.00680,3.20000
,,,-0.00234720000,0.00680,3.20000
,,,-0.00234680000,0.00720,3.20000
,,,-0.00234640000,0.00680,3.20000
,,,-0.00234600000,0.00680,3.20000
,,,-0.00234560000,0.00720,3.60000
,,,-0.00234520000,0.00680,3.20000
,,,-0.00234480000,0.00680,3.20000
,,,-0.00234440000,0.00680,3.20000
,,,-0.00234399984,0.00680,3.20000
,,,-0.00234359984,0.00680,3.20000
,,,-0.00234319984,0.00680,3.20000
,,,-0.00234279984,0.00680,3.20000
,,,-0.00234240016,0.00720,3.20000
,,,-0.00234200016,0.00680,3.20000
,,,-0.00234160016,0.00680,3.20000
,,,-0.00234120016,0.00680,3.60000
,,,-0.00234080016,0.00680,3.20000
,,,-0.00234040016,0.00680,3.20000
,,,-0.00234000016,0.00720,2.80000
,,,-0.00233960016,0.00680,3.20000
,,,-0.00233920016,0.00680,3.20000
,,,-0.00233880016,0.00680,3.20000
,,,-0.00233840016,0.00680,3.20000
,,,-0.00233800016,0.00680,3.20000
,,,-0.00233760016,0.00680,3.20000
,,,-0.00233720016,0.00680,3.20000
,,,-0.00233680016,0.00680,3.20000
,,,-0.00233640016,0.00680,3.60000
,,,-0.00233600016,0.00680,3.20000
,,,-0.00233560016,0.00680,3.20000
,,,-0.00233520016,0.00720,3.20000
,,,-0.00233480016,0.00680,3.20000
,,,-0.00233440016,0.00680,3.20000
,,,-0.00233400000,0.00680,3.20000
,,,-0.00233360000,0.00680,3.20000
,,,-0.00233320000,0.00680,3.20000
,,,-0.00233280000,0.00680,3.60000
,,,-0.00233240000,0.00720,3.20000
,,,-0.00233200000,0.00720,3.20000
,,,-0.00233160000,0.00760,3.20000
,,,-0.00233120000,0.00800,3.20000
,,,-0.00233080000,0.00800,3.20000
,,,-0.00233040000,0.00720,3.20000
,,,-0.00233000000,0.00720,3.20000
,,,-0.00232960000,0.00720,3.20000
,,,-0.00232920000,0.00680,3.20000
,,,-0.00232880000,0.00680,3.20000
,,,-0.00232840000,0.00680,3.20000
,,,-0.00232800000,0.00680,3.20000
,,,-0.00232760000,0.00720,3.20000
,,,-0.00232720000,0.00720,3.20000
,,,-0.00232680000,0.00720,3.20000
,,,-0.00232640000,0.00680,3.20000
,,,-0.00232600000,0.00680,2.80000
,,,-0.00232560000,0.00720,3.20000
,,,-0.00232520000,0.00680,3.20000
,,,-0.00232480000,0.00680,3.20000
,,,-0.00232440000,0.00680,3.20000
,,,-0.00232400000,0.00680,3.20000
,,,-0.00232360000,0.00720,3.20000
,,,-0.00232320000,0.00680,2.80000
,,,-0.00232280000,0.00680,3.20000
,,,-0.00232240000,0.00680,3.20000
,,,-0.00232200000,0.00720,3.20000
,,,-0.00232160000,0.00680,2.80000
,,,-0.00232120000,0.00680,3.20000
,,,-0.00232080000,0.00720,3.20000
,,,-0.00232040000,0.00680,3.20000
,,,-0.00232000000,0.00680,2.80000
,,,-0.00231960000,0.00680,2.80000
,,,-0.00231920000,0.00720,2.80000
,,,-0.00231880000,0.00680,2.80000
,,,-0.00231840000,0.00680,3.20000
,,,-0.00231800000,0.00720,3.20000
,,,-0.00231760000,0.00720,3.20000
,,,-0.00231720000,0.00680,2.80000
,,,-0.00231680000,0.00680,2.80000
,,,-0.00231640000,0.00680,2.80000
,,,-0.00231600000,0.00680,3.20000
,,,-0.00231560000,0.00720,2.80000
,,,-0.00231520000,0.00720,2.80000
,,,-0.00231480000,0.00680,3.20000
,,,-0.00231440000,0.00680,3.20000
,,,-0.00231400000,0.00680,2.80000
,,,-0.00231359984,0.00680,3.20000
,,,-0.00231319984,0.00680,3.20000
,,,-0.00231279984,0.00680,2.80000
,,,-0.00231239984,0.00720,3.20000
,,,-0.00231200016,0.00680,2.80000
,,,-0.00231160016,0.00680,2.80000
,,,-0.00231120016,0.00680,2.80000
,,,-0.00231080016,0.00720,3.20000
,,,-0.00231040016,0.00720,2.80000
,,,-0.00231000016,0.00760,2.80000
,,,-0.00230960016,0.00720,2.80000
,,,-0.00230920016,0.00800,3.20000
,,,-0.00230880016,0.00920,2.80000
,,,-0.00230840016,0.01400,3.20000
,,,-0.00230800016,0.01680,2.80000
,,,-0.00230760016,0.01200,2.80000
,,,-0.00230720016,0.00840,2.80000
,,,-0.00230680016,0.00800,2.80000
,,,-0.00230640016,0.00760,2.80000
,,,-0.00230600016,0.00720,2.80000
,,,-0.00230560016,0.00720,2.80000
,,,-0.00230520016,0.00720,2.80000
,,,-0.00230480016,0.00680,2.80000
,,,-0.00230440016,0.00720,2.80000
,,,-0.00230400016,0.00720,3.20000
,,,-0.00230360016,0.00720,2.80000
,,,-0.00230320000,0.00720,2.80000
,,,-0.00230280000,0.00680,2.80000
,,,-0.00230240000,0.00680,2.80000
,,,-0.00230200000,0.00680,2.80000
,,,-0.00230160000,0.00680,2.80000
,,,-0.00230120000,0.00680,2.80000
,,,-0.00230080000,0.00680,2.80000
,,,-0.00230040000,0.00680,2.80000
,,,-0.00230000000,0.00680,2.80000
,,,-0.00229960000,0.00680,2.80000
,,,-0.00229920000,0.00680,2.80000
,,,-0.00229880000,0.00680,2.80000
,,,-0.00229840000,0.00680,2.80000
,,,-0.00229800000,0.00680,2.80000
,,,-0.00229760000,0.00680,2.80000
,,,-0.00229720000,0.00680,2.80000
,,,-0.00229680000,0.00680,2.80000
,,,-0.00229640000,0.00680,2.80000
,,,-0.00229600000,0.00680,2.80000
,,,-0.00229560000,0.00720,2.80000
,,,-0.00229520000,0.00720,2.80000
,,,-0.00229480000,0.00720,2.80000
,,,-0.00229440000,0.00680,2.80000
,,,-0.00229400000,0.00680,2.80000
,,,-0.00229360000,0.00680,2.80000
,,,-0.00229320000,0.00720,2.80000
,,,-0.00229280000,0.00720,2.80000
,,,-0.00229240000,0.00680,2.80000
,,,-0.00229200000,0.00680,2.80000
,,,-0.00229160000,0.00720,2.80000
,,,-0.00229120000,0.00680,2.80000
,,,-0.00229080000,0.00680,2.80000
,,,-0.00229040000,0.00720,2.80000
,,,-0.00229000000,0.00680,2.80000
,,,-0.00228960000,0.00680,2.80000
,,,-0.00228920000,0.00720,2.80000
,,,-0.00228880000,0.00680,2.80000
,,,-0.00228840000,0.00720,2.80000
,,,-0.00228800000,0.00720,2.80000
,,,-0.00228760000,0.00720,2.80000
,,,-0.00228720000,0.00760,2.80000
,,,-0.00228680000,0.00840,2.80000
,,,-0.00228640000,0.00920,2.80000
,,,-0.00228600000,0.01520,2.80000
,,,-0.00228560000,0.01920,2.80000
,,,-0.00228520000,0.02360,2.80000
,,,-0.00228480000,0.01520,2.80000
,,,-0.00228440000,0.00920,2.80000
,,,-0.00228400000,0.00800,2.40000
,,,-0.00228360000,0.00760,2.80000
,,,-0.00228320000,0.00720,2.80000
,,,-0.00228279984,0.00680,2.80000
,,,-0.00228239984,0.00680,2.80000
,,,-0.00228199984,0.00720,2.40000
,,,-0.00228159984,0.00720,2.80000
,,,-0.00228120016,0.00680,2.80000
,,,-0.00228080016,0.00720,2.80000
,,,-0.00228040016,0.00680,2.40000
,,,-0.00228000016,0.00680,2.80000
,,,-0.00227960016,0.00720,2.80000
,,,-0.00227920016,0.00720,2.40000
,,,-0.00227880016,0.00720,2.40000
,,,-0.00227840016,0.00680,2.40000
,,,-0.00227800016,0.00720,2.80000
,,,-0.00227760016,0.00720,2.80000
,,,-0.00227720016,0.00720,2.80000
,,,-0.00227680016,0.00680,2.40000
,,,-0.00227640016,0.00680,2.80000
,,,-0.00227600016,0.00680,2.40000
,,,-0.00227560016,0.00680,2.80000
,,,-0.00227520016,0.00680,2.80000
,,,-0.00227480016,0.00680,2.40000
,,,-0.00227440016,0.00680,2.40000
,,,-0.00227400016,0.00680,2.80000
,,,-0.00227360016,0.00680,2.40000
,,,-0.00227320016,0.00680,2.40000
,,,-0.00227280000,0.00680,2.40000
,,,-0.00227240000,0.00680,2.40000
,,,-0.00227200000,0.00680,2.40000
,,,-0.00227160000,0.00680,2.40000
,,,-0.00227120000,0.00680,2.80000
,,,-0.00227080000,0.00680,2.80000
,,,-0.00227040000,0.00680,2.40000
,,,-0.00227000000,0.00680,2.40000
,,,-0.00226960000,0.00680,2.40000
,,,-0.00226920000,0.00680,2.40000
,,,-0.00226880000,0.00680,2.80000
,,,-0.00226840000,0.00680,2.40000
,,,-0.00226800000,0.00720,2.40000
,,,-0.00226760000,0.00720,2.40000
,,,-0.00226720000,0.00680,2.40000
,,,-0.00226680000,0.00680,2.40000
,,,-0.00226640000,0.00640,2.40000
,,,-0.00226600000,0.00680,2.40000
,,,-0.00226560000,0.00680,2.40000
,,,-0.00226520000,0.00680,2.40000
,,,-0.00226480000,0.00680,2.40000
,,,-0.00226440000,0.00680,2.40000
,,,-0.00226400000,0.00680,2.40000
,,,-0.00226360000,0.00680,2.40000
,,,-0.00226320000,0.00680,2.40000
,,,-0.00226280000,0.00680,2.40000
,,,-0.00226240000,0.00720,2.40000
,,,-0.00226200000,0.00680,2.40000
,,,-0.00226160000,0.00680,2.40000
,,,-0.00226120000,0.00680,2.40000
,,,-0.00226080000,0.00680,2.40000
,,,-0.00226040000,0.00680,2.40000
,,,-0.00226000000,0.00680,2.40000
,,,-0.00225960000,0.00680,2.40000
,,,-0.00225920000,0.00680,2.40000
,,,-0.00225880000,0.00720,2.40000
,,,-0.00225840000,0.00680,2.40000
,,,-0.00225800000,0.00680,2.40000
,,,-0.00225760000,0.00720,2.40000
,,,-0.00225720000,0.00680,2.40000
,,,-0.00225680000,0.00680,2.40000
,,,-0.00225640000,0.00680,2.40000
,,,-0.00225600000,0.00680,2.40000
,,,-0.00225560000,0.00680,2.40000
,,,-0.00225520000,0.00720,2.40000
,,,-0.00225480000,0.00680,2.40000
,,,-0.00225440000,0.00680,2.40000
,,,-0.00225400000,0.00680,2.40000
,,,-0.00225360000,0.00680,2.40000
,,,-0.00225320000,0.00680,2.40000
,,,-0.00225280000,0.00680,2.40000
,,,-0.00225239984,0.00680,2.40000
,,,-0.00225199984,0.00680,2.40000
,,,-0.00225159984,0.00680,2.40000
,,,-0.00225119984,0.00680,2.40000
,,,-0.00225080016,0.00680,2.40000
,,,-0.00225040016,0.00720,2.40000
,,,-0.00225000016,0.00680,2.40000
,,,-0.00224960016,0.00680,2.40000
,,,-0.00224920016,0.00720,2.40000
,,,-0.00224880016,0.00720,2.40000
,,,-0.00224840016,0.00680,2.40000
,,,-0.00224800016,0.00680,2.00000
,,,-0.00224760016,0.00680,2.40000
,,,-0.00224720016,0.00680,2.40000
,,,-0.00224680016,0.00720,2.40000
,,,-0.00224640016,0.00680,2.40000
,,,-0.00224600016,0.00680,2.00000
,,,-0.00224560016,0.00680,2.40000
,,,-0.00224520016,0.00720,2.40000
,,,-0.00224480016,0.00720,2.40000
,,,-0.00224440016,0.00720,2.00000
,,,-0.00224400016,0.00720,2.40000
,,,-0.00224360016,0.00720,2.40000
,,,-0.00224320016,0.00720,2.40000
,,,-0.00224280016,0.00720,2.40000
,,,-0.00224240000,0.00760,2.40000
,,,-0.00224200000,0.00800,2.40000
,,,-0.00224160000,0.00840,2.40000
,,,-0.00224120000,0.01040,2.40000
,,,-0.00224080000,0.01200,2.40000
,,,-0.00224040000,0.01800,2.00000
,,,-0.00224000000,0.01560,2.40000
,,,-0.00223960000,0.00960,2.40000
,,,-0.00223920000,0.00840,2.40000
,,,-0.00223880000,0.00800,2.00000
,,,-0.00223840000,0.00760,2.40000
,,,-0.00223800000,0.00720,2.40000
,,,-0.00223760000,0.00720,2.00000
,,,-0.00223720000,0.00720,2.00000
,,,-0.00223680000,0.00720,2.40000
,,,-0.00223640000,0.00720,2.40000
,,,-0.00223600000,0.00720,2.40000
,,,-0.00223560000,0.00680,2.40000
,,,-0.00223520000,0.00720,2.40000
,,,-0.00223480000,0.00680,2.40000
,,,-0.00223440000,0.00720,2.00000
,,,-0.00223400000,0.00720,2.40000
,,,-0.00223360000,0.00680,2.00000
,,,-0.00223320000,0.00680,2.40000
,,,-0.00223280000,0.00680,2.40000
,,,-0.00223240000,0.00720,2.00000
,,,-0.00223200000,0.00720,2.40000
,,,-0.00223160000,0.00680,2.40000
,,,-0.00223120000,0.00720,2.00000
,,,-0.00223080000,0.00680,2.40000
,,,-0.00223040000,0.00680,2.40000
,,,-0.00223000000,0.00680,2.40000
,,,-0.00222960000,0.00720,2.00000
,,,-0.00222920000,0.00680,2.40000
,,,-0.00222880000,0.00680,2.00000
,,,-0.00222840000,0.00680,2.00000
,,,-0.00222800000,0.00680,2.00000
,,,-0.00222760000,0.00680,2.00000
,,,-0.00222720000,0.00720,2.40000
,,,-0.00222680000,0.00720,2.00000
